[gd_scene load_steps=2 format=3 uid="uid://oqfo5rfeqsn5"]

[ext_resource type="Script" path="res://scripts/ui/hero_stats.gd" id="1_383yn"]

[node name="HeroStats" type="PanelContainer" node_paths=PackedStringArray("_hp_value_label", "_keys_value_label")]
offset_right = 40.0
offset_bottom = 40.0
script = ExtResource("1_383yn")
_hp_value_label = NodePath("Container/HP/Value")
_keys_value_label = NodePath("Container/Keys/Value")

[node name="Container" type="VBoxContainer" parent="."]
layout_mode = 2

[node name="HP" type="HBoxContainer" parent="Container"]
layout_mode = 2

[node name="Label" type="Label" parent="Container/HP"]
layout_mode = 2
text = "HP:"

[node name="Value" type="Label" parent="Container/HP"]
layout_mode = 2
text = "10/10"

[node name="Keys" type="HBoxContainer" parent="Container"]
layout_mode = 2

[node name="Label" type="Label" parent="Container/Keys"]
layout_mode = 2
text = "Ключи:"

[node name="Value" type="Label" parent="Container/Keys"]
layout_mode = 2
text = "0
"
