[gd_scene load_steps=4 format=3 uid="uid://0uhix0anjnql"]

[ext_resource type="PackedScene" uid="uid://dpf0worag0d7i" path="res://prefabs/gameplay/items/pick_ups/pick_up.tscn" id="1_1qdfe"]
[ext_resource type="Script" path="res://scripts/gameplay/items/pick_ups/key.gd" id="1_f6tmq"]
[ext_resource type="Texture2D" uid="uid://cqsn3cvtpt3cw" path="res://sprites/key.png" id="3_s607l"]

[node name="Key" instance=ExtResource("1_1qdfe")]
script = ExtResource("1_f6tmq")

[node name="Visual" parent="." index="1"]
texture = ExtResource("3_s607l")
