[gd_scene load_steps=2 format=3 uid="uid://dpf0worag0d7i"]

[sub_resource type="CircleShape2D" id="CircleShape2D_abkgy"]

[node name="PickUp" type="Area2D" groups=["y_sortable"]]
position = Vector2(1, -1)
collision_layer = 16
collision_mask = 0
monitoring = false

[node name="Shape" type="CollisionShape2D" parent="."]
shape = SubResource("CircleShape2D_abkgy")
debug_color = Color(0.137255, 0.647059, 0, 0.419608)

[node name="Visual" type="Sprite2D" parent="."]
texture_filter = 1
